{
    "version": "https://jsonfeed.org/version/1",
    "title": "Olena Kuzmych",
    "description": "",
    "home_page_url": "https://kuzmych.gitlab.io",
    "feed_url": "https://kuzmych.gitlab.io/feed.json",
    "user_comment": "",
    "author": {
        "name": "Olena Kuzmych"
    },
    "items": [
        {
            "id": "https://kuzmych.gitlab.io/den-rogatogo-boga.html",
            "url": "https://kuzmych.gitlab.io/den-rogatogo-boga.html",
            "title": "День рогатого бога",
            "summary": "Шива з дравидської печаки Пан осінніх лісів, Той, хто благословляє води в вечірніх&hellip;",
            "content_html": "<figure class=\"post__image post__image--full\" ><img src=\"https://kuzmych.gitlab.io/media/posts/1/800px-Shiva_Pashupati.jpg\" alt=\"Dravidian Shiva\" width=\"800\" height=\"805\">\n<figcaption >Шива з дравидської печаки</figcaption>\n</figure>\n<p> </p>\n<p>Пан осінніх лісів, <br>Той, хто благословляє води в вечірніх сутінках, <br>багатоликий і всюдисущий, <br>владика звірів, <br>творець шаманів і перший шаман, <span class=\"text_exposed_show\"><br>Великий Мисливець і Тримач Списа, <br>Той, хто чекає на перехрестях і дикий пастух, <br>Той, хто відкриває шляхи за Межею, <br>Той, хто взиває до душ, <br>Той, хто забирає собі останній відблиск місячного світла, <br>Той, хто говорить з мертвими, <br>Володар темних чар, <br>з темряви і зірок витканий<br>Той, хто зустрічає світанок кожного дня, <br>Вічний Великий Олень<br>Той, хто благословляє, <br>Той, що не покидає нас навіть далеко від лісів,<br>Володар шляхів і сам - шлях, <br>Пан Великого Дерева, і сам - Древо, <br>Хоронитель і страж лісових дерев, <br>життям і смертю володіє<br>Рогатий</span></p>\n<div class=\"text_exposed_show\">\n<blockquote>\n<p>P.S. 18 жовтня відзначається день Рогатого Бога.</p>\n</blockquote>\n<p>Кернуннос - це не ім'я бога, скоріше титул, визначення: саме це слово перекладається як \"Рогатий\", а справжнє ім'я Рогатого нам невідоме. Це бог, пов'язаний з лісами та дикими тваринами, він - владика проявленого світу, але він і той, хто стоїть на кордоні - тому відомі йому і дороги, які ведуть на той бік. Кернуннос - хранитель життя і родючості, Великий Батько і пара Великої Матері.</p>\n<hr>\n<p>Кернуннос може з'явитися у двох ликах - світлого і темного. Це, зокрема, пов'язано з чергуванням половин року.</p>\n</div>",
            "image": "https://kuzmych.gitlab.io/media/posts/1/",
            "author": {
                "name": "Olena Kuzmych"
            },
            "tags": [
            ],
            "date_published": "2018-10-18T18:12:14+03:00",
            "date_modified": "2018-10-18T18:12:14+03:00"
        }
    ]
}
